# Name of simulation: 				MU-SM
# Number of users N_t = 			4
# Number of antennas (per user) N_u = 		8
# Simulated SNRs in dB: 			[ 0.   2.5  5.   7.5 10.  15.  20.  25.  30.  40.  50. ]
# Required errors for the respective SNRs: 	[100000 100000  10000  10000   1000   1000   1000    100    100     10
#      10]
# Modulation sceme: 				8-PSK
# Date and Time: 				2020-01-04T21:34:34Z
# Overall time needed: 				186.045496
# 
# 
0.000000000000000000e+00,9.094960482396704515e-01
2.500000000000000000e+00,8.738967054094206599e-01
5.000000000000000000e+00,8.214901831923108189e-01
7.500000000000000000e+00,7.556294393229560091e-01
1.000000000000000000e+01,6.920415224913494256e-01
1.500000000000000000e+01,4.147656574035669674e-01
2.000000000000000000e+01,2.229654403567447041e-01
2.500000000000000000e+01,8.764241893076249457e-02
3.000000000000000000e+01,3.148614609571788459e-02
4.000000000000000000e+01,3.165558721114276539e-03
5.000000000000000000e+01,3.407503322315739189e-04
