# Name of simulation: 				MU-SM
# Number of users N_t = 			4
# Number of antennas (per user) N_u = 		4
# Simulated SNRs in dB: 			[ 0.   2.5  5.   7.5 10.  20.  30.  40.  50. ]
# Required errors for the respective SNRs: 	[10000 10000  1000  1000  1000   100   100    10    10]
# Modulation sceme: 				SSK
# Date and Time: 				2019-12-18T21:18:22Z
# 
# 
# 
0.000000000000000000e+00,4.235852253473398887e-01
2.500000000000000000e+00,3.421376762009032402e-01
5.000000000000000000e+00,2.736726874657909314e-01
7.500000000000000000e+00,1.797591227754808674e-01
1.000000000000000000e+01,1.162250116225011648e-01
2.000000000000000000e+01,1.407261469180973862e-02
3.000000000000000000e+01,1.527300496372661388e-03
4.000000000000000000e+01,1.252583453372580835e-04
5.000000000000000000e+01,8.277899003009844917e-06
