# Name of simulation: 				MU-SM
# Number of users N_t = 			4
# Number of antennas (per user) N_u = 		16
# Simulated SNRs in dB: 			[ 0  5 10 20 30 40]
# Required errors for the respective SNRs: 	[10000 10000  1000   100   100    10]
# Modulation sceme: 				SSK
# Date and Time: 				2019-12-18T23:16:12Z
# Overall time needed: 				16.214918
# 
# 
0.000000000000000000e+00,7.479991024010771428e-01
5.000000000000000000e+00,5.893793835091648559e-01
1.000000000000000000e+01,3.780718336483931963e-01
2.000000000000000000e+01,6.770480704129992755e-02
3.000000000000000000e+01,7.874635798094338501e-03
4.000000000000000000e+01,1.034554107179805425e-03
